Created by PLY version 3.11 (http://www.dabeaz.com/ply)

Unused terminals:

    CADENA
    MAS
    MENOS

Grammar

Rule 0     S' -> positivos
Rule 1     positivos -> TIPODATO VARIABLE IGUAL NUMERO

Terminals, with rules where they appear

CADENA               : 
IGUAL                : 1
MAS                  : 
MENOS                : 
NUMERO               : 1
TIPODATO             : 1
VARIABLE             : 1
error                : 

Nonterminals, with rules where they appear

positivos            : 0

Parsing method: LALR

state 0

    (0) S' -> . positivos
    (1) positivos -> . TIPODATO VARIABLE IGUAL NUMERO

    TIPODATO        shift and go to state 2

    positivos                      shift and go to state 1

state 1

    (0) S' -> positivos .



state 2

    (1) positivos -> TIPODATO . VARIABLE IGUAL NUMERO

    VARIABLE        shift and go to state 3


state 3

    (1) positivos -> TIPODATO VARIABLE . IGUAL NUMERO

    IGUAL           shift and go to state 4


state 4

    (1) positivos -> TIPODATO VARIABLE IGUAL . NUMERO

    NUMERO          shift and go to state 5


state 5

    (1) positivos -> TIPODATO VARIABLE IGUAL NUMERO .

    $end            reduce using rule 1 (positivos -> TIPODATO VARIABLE IGUAL NUMERO .)

